{
   "defaultSeverity": "error",
   "extends": [
      "tslint:recommended"
   ],
   "jsRules": {},
   "rules": {
      "trailing-comma": [
         false
      ],
      "no-console": false
   },
   "rulesDirectory": []
}